Linear Regression II
…
Case II

# -----------------------------------------------------------------------------------------------
# Case II: Estimating the Gender Bias with Mock Data
# -----------------------------------------------------------------------------------------------

df <- read_excel("4_Employee_Salaries_Illustration.xlsx",  col_types = c("numeric", "numeric", "numeric", "numeric", "text"))

df 

## # A tibble: 174 x 5
##    `Salary ($000)` `Years of Experience` Group `Group x Years` Sex   
##              <dbl>                 <dbl> <dbl>           <dbl> <chr> 
##  1             148                  16.7     1            16.7 male  
##  2             165                   6.7     1             6.7 male  
##  3             145                  14.8     1            14.8 male  
##  4             139                  13.9     0             0   female
##  5             128                   8.5     0             0   female
##  6             173                  18.2     1            18.2 male  
##  7             133                   9.1     0             0   female
##  8             128                   4.7     1             4.7 male  
##  9             154                  11.5     1            11.5 male  
## 10             121                   8.5     0             0   female
## # ... with 164 more rows
…
